	dist_name	county	dist_lowinc	dist_not_meet	dist_partial	dist_approach	dist_met	dist_exceed	enrollment	dollarsperstudentinstr	studentsperteacher	meet_exceed	resid
697	CCSD 146                         	Cook       	35.4	23.0	26.1	25.7	21.7	3.5	2427	9312.0	15.5	25.2	-23.7248474512
796	Sunnybrook SD 171                	Cook       	4.4	9.6	25.6	30.4	31.2	3.2	1008	5386.0	16.8	34.4	-22.9335320024
655	Gen George Patton SD 133         	Cook       	53.3	16.1	38.7	29.0	16.1	0.0	287	6449.0	15.5	16.1	-21.4441033129
666	Kirby SD 140                     	Cook       	13.6	9.2	23.4	31.8	31.8	3.8	3638	7805.0	16.4	35.6	-20.8329946076
782	CCSD 168                         	Cook       	59.7	30.5	31.1	22.5	13.2	2.6	1405	6205.0	13.9	15.8	-18.6667327533
277	Northbrook SD 28                 	Cook       	2.9	3.0	16.3	31.2	43.1	6.4	1785	12915.0	12.4	49.5	-18.0591002028
778	Brookwood SD 167                 	Cook       	37.7	10.0	26.4	37.9	25.0	0.7	1182	5284.0	16.0	25.7	-17.1067534327
635	Chicago Ridge SD 127-5           	Cook       	60.7	29.8	25.5	25.5	17.0	2.1	1473	7176.0	16.2	19.1	-16.1695227495
642	Cook County SD 130               	Cook       	66.3	29.9	30.2	22.9	16.2	0.8	3701	7127.0	16.0	17.0	-15.78607112
468	Maywood-Melrose Park-Broadview 89	Cook       	65.3	26.9	30.6	25.7	15.9	0.8	5040	5943.0	20.5	16.7	-15.0123404493
693	Arbor Park SD 145                	Cook       	40.2	12.7	23.3	36.7	25.3	2.0	1388	5515.0	20.1	27.3	-14.7197322191
748	Hoover-Schrum Memorial SD 157    	Cook       	80.5	30.0	31.1	27.8	11.1	0.0	909	6239.0	14.7	11.1	-14.4172405839
583	Willow Springs SD 108            	Cook       	61.1	18.4	28.9	31.6	18.4	2.6	375	7105.0	12.8	21.0	-14.0062718661
744	Calumet City SD 155              	Cook       	67.9	22.5	25.2	33.3	18.9	0.0	1130	7352.0	18.3	18.9	-13.4805267566
656	Orland SD 135                    	Cook       	16.7	8.7	18.3	29.8	38.8	4.4	5040	8722.0	17.6	43.2	-13.0591744609
296	Glencoe SD 35                    	Cook       	0.7	9.8	9.8	27.9	46.7	5.7	1182	10358.0	13.2	52.4	-12.8576953764
480	Forest Park SD 91                	Cook       	47.3	6.6	14.5	42.1	34.2	2.6	837	13572.0	11.1	36.8	-12.3987755129
340	Mount Prospect SD 57             	Cook       	9.9	11.2	13.2	31.7	37.6	6.3	2292	6244.0	21.0	43.9	-12.1470386091
376	Park Ridge CCSD 64               	Cook       	3.6	9.5	15.2	23.8	44.1	7.5	4621	10046.0	15.2	51.6	-12.0070289208
620	Evergreen Park ESD 124           	Cook       	43.0	9.5	24.1	34.2	29.1	3.2	1847	8114.0	14.0	32.3	-11.8151559793
798	Sandridge SD 172                 	Cook       	56.1	24.3	16.2	35.1	24.3	0.0	362	5734.0	17.0	24.3	-11.1240463445
490	Komarek SD 94                    	Cook       	42.5	11.4	22.9	32.9	24.3	8.6	546	7717.0	14.2	32.9	-10.9263349234
706	Dolton SD 148                    	Cook       	94.6	29.9	27.9	31.3	9.5	1.5	2103	8180.0	12.6	11.0	-10.890194464
493	Riverside SD 96                  	Cook       	17.5	13.6	20.2	20.7	36.2	9.4	1734	9073.0	16.0	45.6	-10.7597795133
498	Oak Park ESD 97                  	Cook       	17.9	12.0	16.4	26.3	38.2	7.1	6146	8504.0	15.7	45.3	-10.1630617008
445	Mannheim SD 83                   	Cook       	73.9	15.2	31.4	30.7	21.8	1.0	2789	9742.0	15.5	22.8	-10.0265993277
715	Dolton SD 149                    	Cook       	99.4	32.7	32.1	26.1	9.1	0.0	2788	6943.0	22.0	9.1	-9.14145541331
486	Westchester SD 92-5              	Cook       	36.8	11.7	24.3	27.9	30.6	5.4	1145	6810.0	17.6	36.0	-9.13696790402
759	Country Club Hills SD 160        	Cook       	73.6	23.5	25.9	30.1	20.5	0.0	1203	7019.0	17.1	20.5	-8.99258656307
737	Hazel Crest SD 152-5             	Cook       	90.6	30.3	22.5	34.8	11.2	1.1	1006	6154.0	17.5	12.3	-8.74245125462
598	Lemont-Bromberek CSD 113A        	Cook       	14.0	9.2	14.1	31.4	39.2	6.0	2166	5968.0	22.8	45.2	-8.72335296771
271	River Trails SD 26               	Cook       	36.0	10.8	19.6	29.1	36.5	4.1	1524	9662.0	13.8	40.6	-8.51064914427
726	South Holland SD 151             	Cook       	98.2	30.1	30.7	29.4	9.2	0.6	1587	6459.0	16.0	9.8	-8.3446087674
609	Ridgeland SD 122                 	Cook       	68.9	16.8	27.1	33.6	21.4	1.1	2391	6283.0	19.5	22.5	-8.08839198318
559	Pleasantdale SD 107              	Cook       	11.9	5.2	11.7	32.5	39.0	11.7	855	9000.0	14.7	50.7	-7.98804446545
306	Kenilworth SD 38                 	Cook       	0.0	0.0	7.4	30.9	57.4	4.4	476	13552.0	9.5	61.8	-7.82317379078
632	Worth SD 127                     	Cook       	55.2	13.8	22.0	35.8	26.6	1.8	1164	5832.0	18.5	28.4	-7.53781347713
491	Brookfield Lagrange Park SD 95   	Cook       	17.7	1.7	19.0	33.6	33.6	12.1	1184	6167.0	16.2	45.7	-6.87681507591
686	Prairie-Hills ESD 144            	Cook       	93.9	38.0	24.7	25.1	12.2	0.0	2595	5604.0	17.3	12.2	-6.71610625066
288	Glenview CCSD 34                 	Cook       	25.3	13.0	17.5	23.5	38.5	7.5	4888	8410.0	15.8	46.0	-6.14415111981
383	Evanston CCSD 65                 	Cook       	39.1	17.2	19.4	22.8	31.5	9.1	7959	8650.0	15.0	40.6	-5.88309866396
438	Rosemont ESD 78                  	Cook       	32.5	13.0	21.7	17.4	43.5	4.3	228	12026.0	9.8	47.8	-5.83091062071
411	Skokie SD 73-5                   	Cook       	29.7	16.8	12.4	26.5	38.1	6.2	1079	8140.0	15.2	44.3	-5.59839461612
653	Calumet Public SD 132            	Cook       	82.3	19.8	30.5	31.3	16.8	1.5	1118	5068.0	19.2	18.3	-4.94948492138
739	Homewood SD 153                  	Cook       	37.4	9.6	17.6	32.0	36.4	4.4	1955	6813.0	14.3	40.8	-4.08137798191
799	Steger SD 194                    	Cook       	77.0	22.0	22.0	33.1	18.9	3.9	1464	6098.0	14.2	22.8	-4.05108708586
282	Sunset Ridge SD 29               	Cook       	2.1	6.5	4.3	19.6	41.3	28.3	466	17148.0	11.9	69.6	-3.68944375034
344	Comm Cons SD 59                  	Cook       	59.0	19.3	20.9	25.9	28.8	5.1	6866	8354.0	17.9	33.9	-3.60294823429
512	Cicero SD 99                     	Cook       	88.4	30.0	26.5	24.8	17.6	1.1	12075	6387.0	19.0	18.7	-3.58998765716
673	Forest Ridge SD 142              	Cook       	38.1	9.2	23.1	29.5	33.5	4.6	1668	4516.0	21.2	38.1	-3.55690325294
743	Burnham SD 154-5                 	Cook       	96.0	10.5	36.8	36.8	15.8	0.0	201	6394.0	18.3	15.8	-3.21308263007
762	Flossmoor SD 161                 	Cook       	46.9	13.2	20.7	28.3	33.6	4.3	2313	6865.0	15.7	37.9	-2.94026164721
408	Niles ESD 71                     	Cook       	38.4	20.3	18.6	15.3	30.5	15.3	599	9767.0	13.2	45.8	-2.40658749679
628	Alsip-Hazlgrn-Oaklwn SD 126      	Cook       	58.4	9.9	18.7	37.4	31.3	2.7	1632	7239.0	16.8	34.0	-2.34404975258
246	Wheeling CCSD 21                 	Cook       	59.7	14.5	21.4	26.9	32.2	5.0	6693	10133.0	17.2	37.2	-2.26323495673
742	Thornton SD 154                  	Cook       	33.8	13.6	27.3	13.6	36.4	9.1	240	7797.0	12.6	45.5	-2.18948350436
528	Berwyn South SD 100              	Cook       	75.8	22.8	24.1	26.9	23.2	3.1	3861	6889.0	16.3	26.3	-2.07606842096
462	Bellwood SD 88                   	Cook       	94.8	25.6	23.9	34.2	16.2	0.0	2595	5270.0	14.5	16.2	-1.90214193881
730	Harvey SD 152                    	Cook       	99.7	25.4	31.8	28.4	13.4	1.0	2125	5362.0	17.9	14.4	-1.7006857229
677	Midlothian SD 143                	Cook       	74.1	20.4	25.9	27.4	25.4	1.0	1817	6060.0	18.4	26.4	-1.65654586035
456	Berkeley SD 87                   	Cook       	82.3	19.6	28.5	29.6	19.6	2.6	2720	5135.0	18.9	22.2	-1.13471039175
485	Lindop SD 92                     	Cook       	55.0	13.6	20.5	29.5	29.5	6.8	420	6937.0	15.3	36.3	-1.12986638998
227	Palatine CCSD 15                 	Cook       	41.3	13.0	18.0	24.5	35.5	9.0	12482	7866.0	21.2	44.5	-0.0346781692399
574	Elmwood Park CUSD 401            	Cook       	51.0	10.7	16.7	31.6	37.7	3.3	2783	8396.0	17.2	41.0	-0.0151196620219
550	Lyons SD 103                     	Cook       	70.5	22.5	16.3	28.8	30.4	2.1	2502	8053.0	15.1	32.5	0.351878473809
754	ESD 159                          	Cook       	73.9	12.4	24.4	30.7	28.4	4.0	1895	8769.0	12.8	32.4	0.811078025612
590	Burbank SD 111                   	Cook       	54.4	12.9	20.1	27.9	34.3	4.8	3570	7373.0	17.8	39.1	0.856126053667
307	Wilmette SD 39                   	Cook       	3.3	3.6	8.7	23.8	51.7	12.3	3691	9074.0	17.2	64.0	1.4996734166
262	Arlington Heights SD 25          	Cook       	2.1	4.5	8.8	22.8	53.9	10.1	5595	8176.0	16.8	64.0	2.1231371481
681	Posen-Robbins ESD 143-5          	Cook       	91.4	20.1	30.2	27.8	21.3	0.6	1603	5282.0	17.5	21.9	2.31262653279
785	Ford Heights SD 169              	Cook       	97.7	27.3	22.7	29.5	20.5	0.0	434	6297.0	15.3	20.5	2.3452871312
625	Atwood Heights SD 125            	Cook       	44.5	6.7	8.0	42.7	40.0	2.7	676	5468.0	14.4	42.7	2.59912905938
477	River Forest SD 90               	Cook       	5.7	5.2	8.7	21.5	32.6	32.0	1411	9125.0	16.0	64.6	3.07242424916
299	Winnetka SD 36                   	Cook       	0.2	3.6	9.7	15.2	49.1	22.4	1789	12454.0	12.8	71.5	3.35997496844
787	Chicago Heights SD 170           	Cook       	98.5	22.6	28.7	24.8	21.7	2.2	3233	8119.0	16.2	23.9	3.77353779641
313	Schaumburg CCSD 54               	Cook       	20.3	8.2	11.4	22.0	43.6	14.8	14781	8624.0	15.1	58.4	3.82191961751
286	West Northfield SD 31            	Cook       	22.0	13.8	9.6	17.0	43.6	16.0	872	10113.0	10.9	59.6	3.86286257262
400	Skokie SD 68                     	Cook       	48.5	16.2	16.2	20.1	37.7	9.8	1851	9442.0	15.2	47.5	4.07348709946
358	CCSD 62                          	Cook       	52.9	10.7	16.7	24.6	36.1	11.9	4693	10442.0	15.0	48.0	5.20377573188
702	W Harvey-Dixmoor PSD 147         	Cook       	97.7	25.9	21.6	28.4	24.1	0.0	1150	6459.0	16.2	24.1	5.73921957597
453	Rhodes SD 84-5                   	Cook       	82.5	11.8	25.0	28.9	31.6	2.6	692	9220.0	12.8	34.2	5.75554862198
767	Matteson ESD 162                 	Cook       	78.4	10.9	20.2	35.5	28.7	4.7	2699	6764.0	16.3	33.4	6.30702693673
404	Skokie SD 69                     	Cook       	52.4	12.4	16.8	25.4	36.8	8.6	1705	7205.0	15.7	45.4	6.50513911407
584	Indian Springs SD 109            	Cook       	63.2	11.4	22.1	27.8	32.0	6.8	2958	5378.0	16.0	38.8	6.89843099231
283	Northbrook/Glenview SD 30        	Cook       	2.3	6.0	6.0	14.9	55.2	17.9	1168	11620.0	12.4	73.1	6.92876222914
442	Schiller Park SD 81              	Cook       	58.5	4.5	18.8	34.6	27.1	15.0	1453	6296.0	14.6	42.1	6.99870127371
606	Palos CCSD 118                   	Cook       	26.0	5.0	13.2	23.2	51.8	6.8	2002	7736.0	21.1	58.6	7.61583199098
614	Oak Lawn-Hometown SD 123         	Cook       	45.3	9.0	13.4	27.4	38.8	11.4	3202	7274.0	19.5	50.2	8.14773207573
369	East Maine SD 63                 	Cook       	55.3	14.3	12.9	26.4	35.3	11.0	3539	7528.0	13.0	46.3	8.24807163398
578	Summit SD 104                    	Cook       	84.3	10.4	26.4	29.7	30.8	2.7	1839	7164.0	16.6	33.5	8.44904370656
455	Union Ridge SD 86                	Cook       	37.3	12.1	12.1	21.2	37.9	16.7	681	7467.0	16.9	54.6	8.84348533416
750	Lansing SD 158                   	Cook       	74.1	14.2	23.3	25.7	30.6	6.3	2596	5923.0	19.8	36.9	9.01772114624
552	La Grange SD 105 South           	Cook       	39.8	6.5	16.9	20.8	46.1	9.7	1400	8855.0	13.1	55.8	9.35877715641
258	Prospect Heights SD 23           	Cook       	33.3	5.1	12.1	24.2	47.8	10.8	1603	7531.0	17.8	58.6	11.0327026766
440	Norridge SD 80                   	Cook       	28.6	5.5	8.7	24.4	48.0	13.4	1117	6702.0	16.7	61.4	12.8551952975
557	LaGrange Highlands SD 106        	Cook       	6.1	2.9	4.9	16.7	57.8	17.6	880	9628.0	15.0	75.4	13.4055345357
536	Western Springs SD 101           	Cook       	0.1	0.7	5.9	18.4	55.9	19.1	1415	6579.0	13.5	75.0	14.2898695692
414	Lincolnwood SD 74                	Cook       	11.8	2.3	6.2	15.5	64.3	11.6	1246	10119.0	14.4	75.9	15.7453286458
439	Pennoyer SD 79                   	Cook       	23.3	8.1	2.7	24.3	54.1	10.8	403	5320.0	16.8	64.9	15.8217100665
773	Park Forest SD 163               	Cook       	87.9	15.4	17.0	28.0	36.3	3.3	1892	6832.0	18.3	39.6	16.5277909203
489	Hillside SD 93                   	Cook       	71.1	4.9	13.1	34.4	41.0	6.6	509	7144.0	13.4	47.6	16.8675524106
454	River Grove SD 85-5              	Cook       	62.4	7.9	14.3	28.6	41.3	7.9	704	5137.0	17.0	49.2	17.2591136307
449	Franklin Park SD 84              	Cook       	62.2	9.4	12.8	24.8	47.7	5.4	1301	8064.0	15.2	53.1	17.3494367324
304	Avoca SD 37                      	Cook       	8.4	3.4	1.1	14.9	52.9	27.6	751	10746.0	12.4	80.5	18.0778036207
540	La Grange SD 102                 	Cook       	18.1	4.9	6.0	16.6	44.9	27.7	3161	7710.0	16.2	72.6	18.2333923869
723	South Holland SD 150             	Cook       	67.6	4.1	12.4	35.5	39.7	8.3	950	5168.0	18.1	48.0	18.2678661792
398	Golf ESD 67                      	Cook       	27.4	1.3	7.9	22.4	47.4	21.1	658	7416.0	17.2	68.5	18.5281596522
274	Northbrook ESD 27                	Cook       	3.0	0.0	2.3	12.1	49.2	36.4	1298	12474.0	13.7	85.6	18.6450958066
410	East Prairie SD 73               	Cook       	23.7	3.3	6.6	18.0	45.9	26.2	511	8676.0	13.2	72.1	18.9257417414
409	Fairview SD 72                   	Cook       	19.8	4.2	7.0	12.7	60.6	15.5	754	9939.0	13.9	76.1	19.6330391021
407	Morton Grove SD 70               	Cook       	26.8	6.3	8.3	13.5	43.8	28.1	913	8633.0	14.8	71.9	20.1207029561
638	Palos Heights SD 128             	Cook       	11.3	1.4	8.5	9.9	50.7	29.6	705	6663.0	16.4	80.3	24.3252648341
747	Lincoln ESD 156                  	Cook       	88.7	11.0	19.0	23.0	45.0	2.0	1040	5448.0	22.9	47.0	26.034143944
508	Berwyn North SD 98               	Cook       	87.7	3.9	10.1	27.0	53.9	5.1	3084	7427.0	20.1	59.0	35.0844691998
601	North Palos SD 117               	Cook       	59.4	5.3	6.6	16.9	43.4	27.8	3329	7284.0	21.1	71.2	35.2310525731
